
{
  "header": {
    "reportVersion": 2,
    "event": "Allocation failed - JavaScript heap out of memory",
    "trigger": "FatalError",
    "filename": "report.20200625.120718.5860.0.001.json",
    "dumpEventTime": "2020-06-25T12:07:18Z",
    "dumpEventTimeStamp": "1593086838385",
    "processId": 5860,
    "threadId": null,
    "cwd": "/home/vagrant/code/ifreelance",
    "commandLine": [
      "node",
      "node_modules/webpack/bin/webpack.js",
      "--progress",
      "--hide-modules",
      "--config=node_modules/laravel-mix/setup/webpack.config.js",
      "--watch",
      "--watch-poll"
    ],
    "nodejsVersion": "v12.16.3",
    "glibcVersionRuntime": "2.27",
    "glibcVersionCompiler": "2.17",
    "wordSize": 64,
    "arch": "x64",
    "platform": "linux",
    "componentVersions": {
      "node": "12.16.3",
      "v8": "7.8.279.23-node.35",
      "uv": "1.34.2",
      "zlib": "1.2.11",
      "brotli": "1.0.7",
      "ares": "1.16.0",
      "modules": "72",
      "nghttp2": "1.40.0",
      "napi": "5",
      "llhttp": "2.0.4",
      "http_parser": "2.9.3",
      "openssl": "1.1.1g",
      "cldr": "36.0",
      "icu": "65.1",
      "tz": "2019c",
      "unicode": "12.1"
    },
    "release": {
      "name": "node",
      "lts": "Erbium",
      "headersUrl": "https://nodejs.org/download/release/v12.16.3/node-v12.16.3-headers.tar.gz",
      "sourceUrl": "https://nodejs.org/download/release/v12.16.3/node-v12.16.3.tar.gz"
    },
    "osName": "Linux",
    "osRelease": "4.15.0-88-generic",
    "osVersion": "#88-Ubuntu SMP Tue Feb 11 20:11:34 UTC 2020",
    "osMachine": "x86_64",
    "cpus": [
      {
        "model": "Intel(R) Core(TM) i7-8565U CPU @ 1.80GHz",
        "speed": 1992,
        "user": 10417300,
        "nice": 0,
        "sys": 15983200,
        "idle": 56154100,
        "irq": 0
      },
      {
        "model": "Intel(R) Core(TM) i7-8565U CPU @ 1.80GHz",
        "speed": 1992,
        "user": 7129400,
        "nice": 0,
        "sys": 36581300,
        "idle": 29222100,
        "irq": 0
      }
    ],
    "networkInterfaces": [
      {
        "name": "lo",
        "internal": true,
        "mac": "00:00:00:00:00:00",
        "address": "127.0.0.1",
        "netmask": "255.0.0.0",
        "family": "IPv4"
      },
      {
        "name": "eth0",
        "internal": false,
        "mac": "08:00:27:09:cb:a6",
        "address": "10.0.2.15",
        "netmask": "255.255.255.0",
        "family": "IPv4"
      },
      {
        "name": "eth1",
        "internal": false,
        "mac": "08:00:27:62:50:cd",
        "address": "10.1.1.10",
        "netmask": "255.255.255.0",
        "family": "IPv4"
      },
      {
        "name": "lo",
        "internal": true,
        "mac": "00:00:00:00:00:00",
        "address": "::1",
        "netmask": "ffff:ffff:ffff:ffff:ffff:ffff:ffff:ffff",
        "family": "IPv6",
        "scopeid": 0
      },
      {
        "name": "eth0",
        "internal": false,
        "mac": "08:00:27:09:cb:a6",
        "address": "fe80::a00:27ff:fe09:cba6",
        "netmask": "ffff:ffff:ffff:ffff::",
        "family": "IPv6",
        "scopeid": 2
      },
      {
        "name": "eth1",
        "internal": false,
        "mac": "08:00:27:62:50:cd",
        "address": "fe80::a00:27ff:fe62:50cd",
        "netmask": "ffff:ffff:ffff:ffff::",
        "family": "IPv6",
        "scopeid": 3
      }
    ],
    "host": "homestead"
  },
  "javascriptStack": {
    "message": "No stack.",
    "stack": [
      "Unavailable."
    ]
  },
  "nativeStack": [
    {
      "pc": "0x0000000000b46955",
      "symbol": "report::TriggerNodeReport(v8::Isolate*, node::Environment*, char const*, char const*, std::string const&, v8::Local<v8::String>) [node]"
    },
    {
      "pc": "0x0000000000a09c8f",
      "symbol": "node::OnFatalError(char const*, char const*) [node]"
    },
    {
      "pc": "0x0000000000b7d71e",
      "symbol": "v8::Utils::ReportOOMFailure(v8::internal::Isolate*, char const*, bool) [node]"
    },
    {
      "pc": "0x0000000000b7da99",
      "symbol": "v8::internal::V8::FatalProcessOutOfMemory(v8::internal::Isolate*, char const*, bool) [node]"
    },
    {
      "pc": "0x0000000000d2a1f5",
      "symbol": " [node]"
    },
    {
      "pc": "0x0000000000d2a886",
      "symbol": "v8::internal::Heap::RecomputeLimits(v8::internal::GarbageCollector) [node]"
    },
    {
      "pc": "0x0000000000d37105",
      "symbol": "v8::internal::Heap::PerformGarbageCollection(v8::internal::GarbageCollector, v8::GCCallbackFlags) [node]"
    },
    {
      "pc": "0x0000000000d37fb5",
      "symbol": "v8::internal::Heap::CollectGarbage(v8::internal::AllocationSpace, v8::internal::GarbageCollectionReason, v8::GCCallbackFlags) [node]"
    },
    {
      "pc": "0x0000000000d3aa6c",
      "symbol": "v8::internal::Heap::AllocateRawWithRetryOrFail(int, v8::internal::AllocationType, v8::internal::AllocationOrigin, v8::internal::AllocationAlignment) [node]"
    },
    {
      "pc": "0x0000000000d0163b",
      "symbol": "v8::internal::Factory::NewFillerObject(int, bool, v8::internal::AllocationType, v8::internal::AllocationOrigin) [node]"
    },
    {
      "pc": "0x000000000104300e",
      "symbol": "v8::internal::Runtime_AllocateInYoungGeneration(int, unsigned long*, v8::internal::Isolate*) [node]"
    },
    {
      "pc": "0x00000000013c5b79",
      "symbol": " [node]"
    }
  ],
  "javascriptHeap": {
    "totalMemory": 529022976,
    "totalCommittedMemory": 528498112,
    "usedMemory": 515124160,
    "availableMemory": 8379632,
    "memoryLimit": 528482304,
    "heapSpaces": {
      "read_only_space": {
        "memorySize": 262144,
        "committedMemory": 33088,
        "capacity": 32808,
        "used": 32808,
        "available": 0
      },
      "new_space": {
        "memorySize": 8388608,
        "committedMemory": 8388352,
        "capacity": 4189824,
        "used": 16,
        "available": 4189808
      },
      "old_space": {
        "memorySize": 98181120,
        "committedMemory": 98067112,
        "capacity": 96283880,
        "used": 96283880,
        "available": 0
      },
      "code_space": {
        "memorySize": 1740800,
        "committedMemory": 1709792,
        "capacity": 1390688,
        "used": 1390688,
        "available": 0
      },
      "map_space": {
        "memorySize": 5246976,
        "committedMemory": 5096440,
        "capacity": 2517120,
        "used": 2517120,
        "available": 0
      },
      "large_object_space": {
        "memorySize": 414294016,
        "committedMemory": 414294016,
        "capacity": 414083744,
        "used": 414083744,
        "available": 0
      },
      "code_large_object_space": {
        "memorySize": 909312,
        "committedMemory": 909312,
        "capacity": 815904,
        "used": 815904,
        "available": 0
      },
      "new_large_object_space": {
        "memorySize": 0,
        "committedMemory": 0,
        "capacity": 4189824,
        "used": 0,
        "available": 4189824
      }
    }
  },
  "resourceUsage": {
    "userCpuSeconds": 1327.43,
    "kernelCpuSeconds": 4260.65,
    "cpuConsumptionPercent": 95.5227,
    "maxRss": 720072704,
    "pageFaults": {
      "IORequired": 562,
      "IONotRequired": 5338402
    },
    "fsActivity": {
      "reads": 107912,
      "writes": 0
    }
  },
  "uvthreadResourceUsage": {
    "userCpuSeconds": 1013.14,
    "kernelCpuSeconds": 114.588,
    "cpuConsumptionPercent": 19.2774,
    "fsActivity": {
      "reads": 104272,
      "writes": 0
    }
  },
  "libuv": [
  ],
  "workers": [
  ],
  "environmentVariables": {
    "LESSOPEN": "| /usr/bin/lesspipe %s",
    "npm_config_cache_lock_stale": "60000",
    "npm_config_ham_it_up": "",
    "npm_package_dependencies__fullcalendar_interaction": "^4.4.2",
    "npm_config_legacy_bundling": "",
    "npm_config_sign_git_tag": "",
    "MAIL": "/var/mail/vagrant",
    "USER": "vagrant",
    "SSH_CLIENT": "10.0.2.2 55639 22",
    "LANGUAGE": "en_US:",
    "npm_package_devDependencies_jquery": "^3.2",
    "npm_package_dependencies_node_sass": "^4.13.1",
    "npm_config_user_agent": "npm/6.14.5 node/v12.16.3 linux x64",
    "npm_config_always_auth": "",
    "npm_package_dependencies_vue": "^2.6.11",
    "npm_config_bin_links": "true",
    "npm_config_key": "",
    "npm_package_devDependencies_lodash": "^4.17.13",
    "npm_config_description": "true",
    "npm_config_fetch_retries": "2",
    "npm_config_heading": "npm",
    "npm_config_init_version": "1.0.0",
    "npm_config_user": "1000",
    "npm_config_allow_same_version": "",
    "npm_config_if_present": "",
    "npm_node_execpath": "/usr/local/bin/node",
    "SHLVL": "1",
    "npm_config_prefer_online": "",
    "npm_config_noproxy": "",
    "HOME": "/home/vagrant",
    "OLDPWD": "/home/vagrant",
    "npm_package_devDependencies_sass": "^1.20.1",
    "npm_package_dependencies_vuex": "^3.1.3",
    "npm_config_force": "",
    "SSH_TTY": "/dev/pts/0",
    "npm_config_only": "",
    "npm_config_read_only": "",
    "npm_package_devDependencies_bootstrap": "^4.0.0",
    "npm_config_cache_min": "10",
    "npm_config_init_license": "ISC",
    "npm_config_editor": "vi",
    "npm_config_rollback": "true",
    "npm_config_tag_version_prefix": "v",
    "npm_package_scripts_production": "cross-env NODE_ENV=production node_modules/webpack/bin/webpack.js --no-progress --hide-modules --config=node_modules/laravel-mix/setup/webpack.config.js",
    "npm_package_devDependencies_resolve_url_loader": "^2.3.1",
    "npm_config_cache_max": "Infinity",
    "npm_config_userconfig": "/home/vagrant/.npmrc",
    "npm_config_timing": "",
    "npm_package_dependencies__fullcalendar_vue": "^4.4.2",
    "npm_config_tmp": "/tmp",
    "npm_config_engine_strict": "",
    "npm_config_init_author_name": "",
    "npm_config_init_author_url": "",
    "npm_config_preid": "",
    "npm_package_description": "<p align=\"center\"><img src=\"https://res.cloudinary.com/dtfbvvkyp/image/upload/v1566331377/laravel-logolockup-cmyk-red.svg\" width=\"400\"></p>",
    "npm_config_depth": "Infinity",
    "npm_config_package_lock_only": "",
    "npm_config_save_dev": "",
    "npm_config_usage": "",
    "npm_package_dependencies_vue_moment": "^4.1.0",
    "npm_package_readmeFilename": "README.md",
    "npm_config_metrics_registry": "https://registry.npmjs.org/",
    "npm_config_package_lock": "true",
    "npm_config_progress": "true",
    "npm_config_cafile": "",
    "npm_config_otp": "",
    "npm_config_https_proxy": "",
    "npm_config_save_prod": "",
    "npm_package_scripts_dev": "npm run development",
    "npm_config_audit": "true",
    "npm_config_sso_type": "oauth",
    "npm_config_cidr": "",
    "npm_config_onload_script": "",
    "LOGNAME": "vagrant",
    "npm_package_scripts_prod": "npm run production",
    "npm_package_devDependencies_vue_template_compiler": "^2.6.10",
    "npm_config_rebuild_bundle": "true",
    "npm_config_shell": "/bin/bash",
    "npm_config_save_bundle": "",
    "_": "/usr/local/bin/npm",
    "npm_package_private": "true",
    "npm_config_format_package_lock": "true",
    "npm_config_prefix": "/usr/local",
    "npm_config_dry_run": "",
    "npm_package_devDependencies_vue": "^2.5.17",
    "npm_config_scope": "",
    "npm_config_cache_lock_wait": "10000",
    "npm_config_registry": "https://registry.npmjs.org/",
    "npm_config_browser": "",
    "npm_config_ignore_prepublish": "",
    "npm_config_save_optional": "",
    "npm_config_searchopts": "",
    "npm_config_versions": "",
    "XDG_SESSION_ID": "5",
    "TERM": "xterm",
    "npm_package_dependencies_vuetify": "^2.2.18",
    "npm_config_cache": "/home/vagrant/.npm",
    "npm_config_proxy": "",
    "npm_config_send_metrics": "",
    "npm_config_global_style": "",
    "npm_config_ignore_scripts": "",
    "npm_config_version": "",
    "npm_config_viewer": "man",
    "npm_config_node_gyp": "/usr/local/lib/node_modules/npm/node_modules/node-gyp/bin/node-gyp.js",
    "npm_config_local_address": "",
    "PATH": "/usr/local/lib/node_modules/npm/node_modules/npm-lifecycle/node-gyp-bin:/home/vagrant/code/ifreelance/node_modules/.bin:/usr/local/lib/node_modules/npm/node_modules/npm-lifecycle/node-gyp-bin:/home/vagrant/code/ifreelance/node_modules/.bin:/usr/local/lib/node_modules/npm/node_modules/npm-lifecycle/node-gyp-bin:/home/vagrant/code/ifreelance/node_modules/.bin:/home/vagrant/.composer/vendor/bin:/usr/local/sbin:/usr/local/bin:/usr/sbin:/usr/bin:/sbin:/bin:/usr/games:/usr/local/games:/snap/bin",
    "NODE": "/usr/local/bin/node",
    "npm_package_dependencies__fullcalendar_timegrid": "^4.4.2",
    "npm_package_name": "",
    "npm_config_audit_level": "low",
    "npm_config_prefer_offline": "",
    "S_COLORS": "auto",
    "XDG_RUNTIME_DIR": "/run/user/1000",
    "npm_package_dependencies__fullcalendar_core": "^4.4.2",
    "npm_config_color": "true",
    "npm_config_sign_git_commit": "",
    "npm_package_scripts_watch_poll": "npm run watch -- --watch-poll",
    "npm_config_fetch_retry_mintimeout": "10000",
    "npm_config_maxsockets": "50",
    "npm_config_sso_poll_frequency": "500",
    "npm_config_offline": "",
    "LANG": "en_US.UTF-8",
    "npm_package_scripts_development": "cross-env NODE_ENV=development node_modules/webpack/bin/webpack.js --progress --hide-modules --config=node_modules/laravel-mix/setup/webpack.config.js \"--watch\" \"--watch-poll\"",
    "npm_config_umask": "0002",
    "LS_COLORS": "rs=0:di=01;34:ln=01;36:mh=00:pi=40;33:so=01;35:do=01;35:bd=40;33;01:cd=40;33;01:or=40;31;01:mi=00:su=37;41:sg=30;43:ca=30;41:tw=30;42:ow=34;42:st=37;44:ex=01;32:*.tar=01;31:*.tgz=01;31:*.arc=01;31:*.arj=01;31:*.taz=01;31:*.lha=01;31:*.lz4=01;31:*.lzh=01;31:*.lzma=01;31:*.tlz=01;31:*.txz=01;31:*.tzo=01;31:*.t7z=01;31:*.zip=01;31:*.z=01;31:*.Z=01;31:*.dz=01;31:*.gz=01;31:*.lrz=01;31:*.lz=01;31:*.lzo=01;31:*.xz=01;31:*.zst=01;31:*.tzst=01;31:*.bz2=01;31:*.bz=01;31:*.tbz=01;31:*.tbz2=01;31:*.tz=01;31:*.deb=01;31:*.rpm=01;31:*.jar=01;31:*.war=01;31:*.ear=01;31:*.sar=01;31:*.rar=01;31:*.alz=01;31:*.ace=01;31:*.zoo=01;31:*.cpio=01;31:*.7z=01;31:*.rz=01;31:*.cab=01;31:*.wim=01;31:*.swm=01;31:*.dwm=01;31:*.esd=01;31:*.jpg=01;35:*.jpeg=01;35:*.mjpg=01;35:*.mjpeg=01;35:*.gif=01;35:*.bmp=01;35:*.pbm=01;35:*.pgm=01;35:*.ppm=01;35:*.tga=01;35:*.xbm=01;35:*.xpm=01;35:*.tif=01;35:*.tiff=01;35:*.png=01;35:*.svg=01;35:*.svgz=01;35:*.mng=01;35:*.pcx=01;35:*.mov=01;35:*.mpg=01;35:*.mpeg=01;35:*.m2v=01;35:*.mkv=01;35:*.webm=01;35:*.ogm=01;35:*.mp4=01;35:*.m4v=01;35:*.mp4v=01;35:*.vob=01;35:*.qt=01;35:*.nuv=01;35:*.wmv=01;35:*.asf=01;35:*.rm=01;35:*.rmvb=01;35:*.flc=01;35:*.avi=01;35:*.fli=01;35:*.flv=01;35:*.gl=01;35:*.dl=01;35:*.xcf=01;35:*.xwd=01;35:*.yuv=01;35:*.cgm=01;35:*.emf=01;35:*.ogv=01;35:*.ogx=01;35:*.aac=00;36:*.au=00;36:*.flac=00;36:*.m4a=00;36:*.mid=00;36:*.midi=00;36:*.mka=00;36:*.mp3=00;36:*.mpc=00;36:*.ogg=00;36:*.ra=00;36:*.wav=00;36:*.oga=00;36:*.opus=00;36:*.spx=00;36:*.xspf=00;36:",
    "npm_package_dependencies__fullcalendar_daygrid": "^4.4.2",
    "npm_package_dependencies__mdi_font": "^5.0.45",
    "npm_package_gitHead": "a8594791c4eeb6f8388c921882857a694638f7c0",
    "npm_config_fund": "true",
    "npm_config_fetch_retry_maxtimeout": "60000",
    "npm_config_loglevel": "notice",
    "npm_config_logs_max": "10",
    "npm_config_message": "%s",
    "npm_lifecycle_script": "cross-env NODE_ENV=development node_modules/webpack/bin/webpack.js --progress --hide-modules --config=node_modules/laravel-mix/setup/webpack.config.js \"--watch\" \"--watch-poll\"",
    "npm_package_scripts_hot": "cross-env NODE_ENV=development node_modules/webpack-dev-server/bin/webpack-dev-server.js --inline --hot --config=node_modules/laravel-mix/setup/webpack.config.js",
    "npm_config_ca": "",
    "npm_config_cert": "",
    "npm_config_global": "",
    "npm_config_link": "",
    "SHELL": "/bin/bash",
    "npm_package_version": "",
    "npm_config_save": "true",
    "npm_config_unicode": "true",
    "npm_config_access": "",
    "npm_config_also": "",
    "npm_lifecycle_event": "development",
    "npm_config_argv": "{\"remain\":[\"--watch\",\"--watch-poll\"],\"cooked\":[\"run\",\"development\",\"--\",\"--watch\",\"--watch-poll\"],\"original\":[\"run\",\"development\",\"--\",\"--watch\",\"--watch-poll\"]}",
    "npm_config_searchlimit": "20",
    "npm_config_unsafe_perm": "true",
    "npm_config_update_notifier": "true",
    "npm_config_before": "",
    "npm_config_long": "",
    "npm_config_production": "",
    "LESSCLOSE": "/usr/bin/lesspipe %s %s",
    "npm_config_auth_type": "legacy",
    "npm_config_node_version": "12.16.3",
    "npm_config_tag": "latest",
    "npm_package_devDependencies_sass_loader": "7.*",
    "npm_package_dependencies_vue_router": "^3.1.6",
    "npm_config_git_tag_version": "true",
    "npm_config_commit_hooks": "true",
    "npm_config_shrinkwrap": "true",
    "npm_config_script_shell": "",
    "npm_config_fetch_retry_factor": "10",
    "npm_config_strict_ssl": "true",
    "npm_config_save_exact": "",
    "npm_config_globalconfig": "/usr/local/etc/npmrc",
    "npm_config_init_module": "/home/vagrant/.npm-init.js",
    "npm_config_dev": "",
    "npm_config_parseable": "",
    "LC_ALL": "en_US.UTF-8",
    "PWD": "/home/vagrant/code/ifreelance",
    "npm_config_globalignorefile": "/usr/local/etc/npmignore",
    "npm_execpath": "/usr/local/lib/node_modules/npm/bin/npm-cli.js",
    "SSH_CONNECTION": "10.0.2.2 55639 10.0.2.15 22",
    "XDG_DATA_DIRS": "/usr/local/share:/usr/share:/var/lib/snapd/desktop",
    "npm_package_devDependencies_axios": "^0.19.2",
    "npm_package_devDependencies_laravel_mix": "^4.0.7",
    "npm_config_cache_lock_retries": "10",
    "npm_config_searchstaleness": "900",
    "npm_package_scripts_watch": "npm run development -- --watch",
    "npm_package_devDependencies_cross_env": "^5.1",
    "npm_package_devDependencies_popper_js": "^1.12",
    "npm_config_save_prefix": "^",
    "npm_config_scripts_prepend_node_path": "warn-only",
    "npm_config_node_options": "",
    "npm_config_group": "1000",
    "npm_config_init_author_email": "",
    "npm_config_searchexclude": "",
    "npm_config_git": "git",
    "npm_config_optional": "true",
    "INIT_CWD": "/home/vagrant/code/ifreelance",
    "npm_config_json": "",
    "NODE_ENV": "development",
    "APP_NAME": "Trainer",
    "APP_ENV": "local",
    "APP_KEY": "base64:3lOxGp8yBdCn3VMYr8M81OfuHfGgoz8cz3mxOtE3iXw=",
    "APP_DEBUG": "true",
    "APP_URL": "http://localhost",
    "LOG_CHANNEL": "stack",
    "DB_CONNECTION": "mysql",
    "DB_HOST": "127.0.0.1",
    "DB_PORT": "3306",
    "DB_DATABASE": "trainer",
    "DB_USERNAME": "homestead",
    "DB_PASSWORD": "secret",
    "BROADCAST_DRIVER": "log",
    "CACHE_DRIVER": "file",
    "QUEUE_CONNECTION": "sync",
    "SESSION_DRIVER": "cookie",
    "SESSION_LIFETIME": "120",
    "REDIS_HOST": "127.0.0.1",
    "REDIS_PASSWORD": "null",
    "REDIS_PORT": "6379",
    "MAIL_MAILER": "smtp",
    "MAIL_HOST": "smtp.mailtrap.io",
    "MAIL_PORT": "2525",
    "MAIL_USERNAME": "db83ddd3e441f0",
    "MAIL_PASSWORD": "30dd7e496c66aa",
    "MAIL_ENCRYPTION": "tls",
    "AWS_ACCESS_KEY_ID": "",
    "AWS_SECRET_ACCESS_KEY": "",
    "AWS_DEFAULT_REGION": "us-east-1",
    "AWS_BUCKET": "",
    "PUSHER_APP_ID": "",
    "PUSHER_APP_KEY": "",
    "PUSHER_APP_SECRET": "",
    "PUSHER_APP_CLUSTER": "mt1",
    "MIX_PUSHER_APP_KEY": "",
    "MIX_PUSHER_APP_CLUSTER": "mt1"
  },
  "userLimits": {
    "core_file_size_blocks": {
      "soft": 0,
      "hard": "unlimited"
    },
    "data_seg_size_kbytes": {
      "soft": "unlimited",
      "hard": "unlimited"
    },
    "file_size_blocks": {
      "soft": "unlimited",
      "hard": "unlimited"
    },
    "max_locked_memory_bytes": {
      "soft": 16777216,
      "hard": 16777216
    },
    "max_memory_size_kbytes": {
      "soft": "unlimited",
      "hard": "unlimited"
    },
    "open_files": {
      "soft": 1048576,
      "hard": 1048576
    },
    "stack_size_bytes": {
      "soft": 8388608,
      "hard": "unlimited"
    },
    "cpu_time_seconds": {
      "soft": "unlimited",
      "hard": "unlimited"
    },
    "max_user_processes": {
      "soft": 3692,
      "hard": 3692
    },
    "virtual_memory_kbytes": {
      "soft": "unlimited",
      "hard": "unlimited"
    }
  },
  "sharedObjects": [
    "linux-vdso.so.1",
    "/lib/x86_64-linux-gnu/libdl.so.2",
    "/usr/lib/x86_64-linux-gnu/libstdc++.so.6",
    "/lib/x86_64-linux-gnu/libm.so.6",
    "/lib/x86_64-linux-gnu/libgcc_s.so.1",
    "/lib/x86_64-linux-gnu/libpthread.so.0",
    "/lib/x86_64-linux-gnu/libc.so.6",
    "/lib64/ld-linux-x86-64.so.2",
    "/home/vagrant/code/ifreelance/node_modules/node-sass/vendor/linux-x64-72/binding.node"
  ]
}